{
    "explorer.openEditors.visible": 0,
    "editor.snippetSuggestions": "top",
    "emmet.showAbbreviationSuggestions": false,
    "editor.multiCursorModifier": "ctrlCmd",
    "editor.formatOnPaste": false,
    "workbench.colorTheme": "Seti Black",
    "window.zoomLevel": 0,
    "workbench.iconTheme": "vscode-icons",
    "editor.fontLigatures": true,
    "terminal.integrated.fontSize": 12,
    "editor.fontSize": 12,
    "files.autoSave": "off",
    "editor.fontFamily": "Monaco",
    "markdown.preview.fontSize": 12,
    "editor.tabSize": 2,
    "editor.detectIndentation": true,
    "editor.minimap.enabled": false,
    "eslint.enable": true,
    "files.exclude": { "**/.*": true },
    "workbench.startupEditor": "newUntitledFile",
    "editor.suggestSelection": "first",
    "[javascript]": {
        "editor.defaultFormatter": "HookyQR.beautify"
    },
    "[json]": {
        "editor.defaultFormatter": "HookyQR.beautify"
    },
    "[html]": {
        "editor.defaultFormatter": "HookyQR.beautify"
    },
    "[css]": {
        "editor.defaultFormatter": "HookyQR.beautify"
    },
    "liveshare.featureSet": "insiders",
    "[vue]": {
        "editor.defaultFormatter": "octref.vetur"
    },
    "diffEditor.ignoreTrimWhitespace": false,
    "[typescriptreact]": {
        "editor.defaultFormatter": "esbenp.prettier-vscode"
    },
    "liveshare.anonymousGuestApproval": "accept",
    "[typescript]": {
        "editor.defaultFormatter": "esbenp.prettier-vscode"
    },
    "workbench.colorCustomizations": {},
    "[scss]": {
        "editor.defaultFormatter": "esbenp.prettier-vscode"
    },
    "[javascriptreact]": {
        "editor.defaultFormatter": "esbenp.prettier-vscode"
    },
    "[jsonc]": {
        "editor.defaultFormatter": "esbenp.prettier-vscode"
    },
    "editor.tokenColorCustomizations": {
        "textMateRules": [
            {
                "scope": [
                    "keyword.operator.logical"
                ],
                "settings": {
                    "fontStyle": ""
                }
            },
            {
                "scope": [
                    "keyword.operator.logical"
                ],
                "settings": {
                    "fontStyle": ""
                }
            },
            {
                "name": "envKeys",
                "scope": "string.quoted.double.env,source.env,constant.numeric.env",
                "settings": {
                    "foreground": "#19354900"
                }
            },
            {
                "scope": [
                    "keyword.operator.logical"
                ],
                "settings": {
                    "fontStyle": ""
                }
            },
            {
                "scope": [
                    "keyword.operator.logical"
                ],
                "settings": {
                    "fontStyle": ""
                }
            },
            {
                "name": "envKeys",
                "scope": "string.quoted.double.env,source.env,constant.numeric.env",
                "settings": {
                    "foreground": "#19354900"
                }
            }
        ]
    }
}
